Text mining
…
Tokenization is the process of splitting text up into the units that we are interested in analyzing. The unnest_tokens() function performs tokenization by splitting text up into the required tokens, and creating a new data frame with one token per row i.e.tidy text data.

Suppose we want to analyze the individual words Trump uses in his tweets. We do this by unnest_tokens(tweets, word, text, token = "words"). Note the arguments passed to unnest_tokens():

the messy data frame containing the text (tweets)

the variable name we want to use for the tokens in the new tidy data frame (word)

the variable name where the text is stored in the messy data frame (text i.e.the tweets are in tweets$text)

the unit of tokenization (token="words")

unnest_tokens(sample_tweets, word, text, token = "words")

## # A tibble: 94 x 2
##    date                word           
##    <dttm>              <chr>          
##  1 2013-09-11 00:26:54 obamafraudulent
##  2 2013-09-11 00:26:54 realdonaldtrump
##  3 2013-09-11 00:26:54 d18mt2         
##  4 2013-09-11 00:26:54 the            
##  5 2013-09-11 00:26:54 birth          
##  6 2013-09-11 00:26:54 certificate    
##  7 2013-09-11 00:26:54 that           
##  8 2013-09-11 00:26:54 you            
##  9 2013-09-11 00:26:54 forced         
## 10 2013-09-11 00:26:54 obama          
## # ... with 84 more rows
…
A really nice feature of tidytext is that you can tokenize by regular expressions. This gives you a lot of flexibility in deciding what you want a token to constitute. For example, for analyzing tweet data we can explicitly include symbols like @ and # that mean something, and exclude symbols like ? and ! that dont add anything (unless we want to include them, in which case we can!).

unnest_tokens(sample_tweets, word, text, token = "regex", pattern = "[^A-Za-z\\d_#@']")

## # A tibble: 99 x 2
##    date                word            
##    <dttm>              <chr>           
##  1 2013-09-11 00:26:54 @obamafraudulent
##  2 2013-09-11 00:26:54 @realdonaldtrump
##  3 2013-09-11 00:26:54 @d18mt2         
##  4 2013-09-11 00:26:54 the             
##  5 2013-09-11 00:26:54 birth           
##  6 2013-09-11 00:26:54 certificate     
##  7 2013-09-11 00:26:54 that            
##  8 2013-09-11 00:26:54 you             
##  9 2013-09-11 00:26:54 forced          
## 10 2013-09-11 00:26:54 obama           
## # ... with 89 more rows
…
Lets have a look at the data frame we just constructed.

head(tidy_tweets_wstop,40)

## # A tibble: 40 x 4
## # Groups:   id_str [3]
##    id_str             date                word   next_word
##    <chr>              <dttm>              <chr>  <chr>    
##  1 260850671576829952 2012-10-23 21:10:21 this   is       
##  2 260850671576829952 2012-10-23 21:10:21 is     not      
##  3 260850671576829952 2012-10-23 21:10:21 not    a        
##  4 260850671576829952 2012-10-23 21:10:21 a      media    
##  5 260850671576829952 2012-10-23 21:10:21 media  event    
##  6 260850671576829952 2012-10-23 21:10:21 event  or       
##  7 260850671576829952 2012-10-23 21:10:21 or     about    
##  8 260850671576829952 2012-10-23 21:10:21 about  donald   
##  9 260850671576829952 2012-10-23 21:10:21 donald j        
## 10 260850671576829952 2012-10-23 21:10:21 j      trump    
## # ... with 30 more rows
…
