…
Tibbles are a special kind of dataframe that work well with tidyverse packages ("in the tidyverse").

``` r
# convert ratings to a "tibble"
ratings <- as.tibble(ratings)
```

A nice feature of tibbles is that if you display them in the console (by typing `ratings`, for example) only the first few rows and columns are shown.

``` r
ratings
```

    ## # A tibble: 100,004 x 4
    ##    userId movieId rating  timestamp
    ##     <int>   <int>  <dbl>      <int>
    ##  1      1      31    2.5 1260759144
    ##  2      1    1029    3   1260759179
    ##  3      1    1061    3   1260759182
    ##  4      1    1129    2   1260759185
    ##  5      1    1172    4   1260759205
    ##  6      1    1263    2   1260759151
    ##  7      1    1287    2   1260759187
    ##  8      1    1293    2   1260759148
    ##  9      1    1339    3.5 1260759125
    ## 10      1    1343    2   1260759131
    ## # ... with 99,994 more rows
…
Other uses of `grouped_by()`: grouped filters and grouped mutates
-----------------------------------------------------------------

While you'll probably use `group_by()` most often with `summarise()`, it can also be useful when used in conjunction with `filter()` and `mutate()`. Grouped filters perform the filtering within each group. Below we use it to extract each user's favourite movie (or movies, if there's a tie).

``` r
# example of a grouped filter
ratings %>% group_by(userId) %>% filter(rank(desc(rating)) < 2)
```

    ## # A tibble: 102 x 6
    ## # Groups:   userId [69]
    ##    userId movieId rating  timestamp title              genres             
    ##     <int>   <int>  <dbl>      <int> <fct>              <fct>              
    ##  1     13       1      5 1331380058 Toy Story (1995)   Adventure|Animatio…
    ##  2     13     356      5 1331380018 Forrest Gump (199… Comedy|Drama|Roman…
    ##  3     14    3175      5  976244313 Galaxy Quest (199… Adventure|Comedy|S…
    ##  4     18      25      5  856006886 Leaving Las Vegas… Drama|Romance      
    ##  5     18      32      5  856006885 Twelve Monkeys (a… Mystery|Sci-Fi|Thr…
    ##  6     24       6      5  849321588 Heat (1995)        Action|Crime|Thril…
    ##  7     24     296      5  849282414 Pulp Fiction (199… Comedy|Crime|Drama…
    ##  8     35    3072      5 1174450056 Moonstruck (1987)  Comedy|Romance     
    ##  9     50     589      5  847412628 Terminator 2: Jud… Action|Sci-Fi      
    ## 10     72   55820      5 1464722872 No Country for Ol… Crime|Drama        
    ## # ... with 92 more rows

Here we use a grouped mutate to standardise each user's ratings so that they have a mean of zero (for each user, which guarantees the overall mean rating is also zero).

``` r
# example of a grouped mutate
ratings %>% 
  group_by(userId) %>%
  mutate(centered_rating = rating - mean(rating)) %>% 
  select(-movieId, -timestamp, -genres)
```

    ## # A tibble: 100,004 x 4
    ## # Groups:   userId [671]
    ##    userId rating title                                     centered_rating
    ##     <int>  <dbl> <fct>                                               <dbl>
    ##  1      1    2.5 Dangerous Minds (1995)                            -0.0500
    ##  2      1    3   Dumbo (1941)                                       0.45  
    ##  3      1    3   Sleepers (1996)                                    0.45  
    ##  4      1    2   Escape from New York (1981)                       -0.550 
    ##  5      1    4   Cinema Paradiso (Nuovo cinema Paradiso) …          1.45  
    ##  6      1    2   Deer Hunter, The (1978)                           -0.550 
    ##  7      1    2   Ben-Hur (1959)                                    -0.550 
    ##  8      1    2   Gandhi (1982)                                     -0.550 
    ##  9      1    3.5 Dracula (Bram Stoker's Dracula) (1992)             0.95  
    ## 10      1    2   Cape Fear (1991)                                  -0.550 
    ## # ... with 99,994 more rows
…
We now want to reshape the data frame into a 15x20 matrix i.e.from "long" format to "wide" format. We can do this using the `spread()` verb.

``` r
ratings_red %>% spread(key = movieId, value = rating)
```

    ## # A tibble: 106 x 24
    ##    userId timestamp title genres `111` `208` `292` `329` `349` `912` `919`
    ##  *  <int>     <int> <fct> <fct>  <dbl> <dbl> <dbl> <dbl> <dbl> <dbl> <dbl>
    ##  1    149    1.44e9 Ince… Actio…    NA    NA    NA    NA    NA    NA    NA
    ##  2    149    1.44e9 Brea… Comed…    NA    NA    NA    NA    NA    NA    NA
    ##  3    149    1.44e9 Fift… Actio…    NA    NA    NA    NA    NA    NA    NA
    ##  4    149    1.44e9 Amer… Comed…    NA    NA    NA    NA    NA    NA    NA
    ##  5    149    1.44e9 Stan… Adven…    NA    NA    NA    NA    NA    NA    NA
    ##  6    177    9.07e8 Arma… Actio…    NA    NA    NA    NA    NA    NA    NA
    ##  7    177    9.07e8 Fift… Actio…    NA    NA    NA    NA    NA    NA    NA
    ##  8    177    9.07e8 Star… Adven…    NA    NA    NA     4    NA    NA    NA
    ##  9    177    9.07e8 Clea… Actio…    NA    NA    NA    NA     4    NA    NA
    ## 10    177    9.07e8 Taxi… Crime…     4    NA    NA    NA    NA    NA    NA
    ## # ... with 96 more rows, and 13 more variables: `1208` <dbl>,
    ## #   `1259` <dbl>, `1527` <dbl>, `1917` <dbl>, `1961` <dbl>, `1968` <dbl>,
    ## #   `2683` <dbl>, `2706` <dbl>, `3996` <dbl>, `4995` <dbl>, `5445` <dbl>,
    ## #   `6874` <dbl>, `79132` <dbl>
…
``` r
# reload the MovieLens data
load("data/movielens-small.RData")
ratings <- as.tibble(ratings)
movies <- as.tibble(movies)
```

Note that the same *movieId* can appear multiple times in the *ratings* data frame:

``` r
ratings %>% arrange(movieId) # note duplicate movieIds
```

    ## # A tibble: 100,004 x 4
    ##    userId movieId rating  timestamp
    ##     <int>   <int>  <dbl>      <int>
    ##  1      7       1    3    851866703
    ##  2      9       1    4    938629179
    ##  3     13       1    5   1331380058
    ##  4     15       1    2    997938310
    ##  5     19       1    3    855190091
    ##  6     20       1    3.5 1238729767
    ##  7     23       1    3   1148729853
    ##  8     26       1    5   1360087980
    ##  9     30       1    4    944943070
    ## 10     37       1    4    981308121
    ## # ... with 99,994 more rows

But each *movieId* only appears once in the *movies* data frame:

``` r
movies %>% arrange(movieId) # note unique movieIds
```

    ## # A tibble: 9,125 x 3
    ##    movieId title                              genres                      
    ##      <int> <fct>                              <fct>                       
    ##  1       1 Toy Story (1995)                   Adventure|Animation|Childre…
    ##  2       2 Jumanji (1995)                     Adventure|Children|Fantasy  
    ##  3       3 Grumpier Old Men (1995)            Comedy|Romance              
    ##  4       4 Waiting to Exhale (1995)           Comedy|Drama|Romance        
    ##  5       5 Father of the Bride Part II (1995) Comedy                      
    ##  6       6 Heat (1995)                        Action|Crime|Thriller       
    ##  7       7 Sabrina (1995)                     Comedy|Romance              
    ##  8       8 Tom and Huck (1995)                Adventure|Children          
    ##  9       9 Sudden Death (1995)                Action                      
    ## 10      10 GoldenEye (1995)                   Action|Adventure|Thriller   
    ## # ... with 9,115 more rows

In this case a left join by the *movieId* key copies across the movie title information (as well as any other information in the *movies* data frame):

``` r
left_join(ratings, movies, by = "movieId") %>% select(title, everything())
```

    ## # A tibble: 100,004 x 6
    ##    title                  userId movieId rating timestamp genres          
    ##    <fct>                   <int>   <int>  <dbl>     <int> <fct>           
    ##  1 Dangerous Minds (1995)      1      31    2.5    1.26e9 Drama           
    ##  2 Dumbo (1941)                1    1029    3      1.26e9 Animation|Child…
    ##  3 Sleepers (1996)             1    1061    3      1.26e9 Thriller        
    ##  4 Escape from New York …      1    1129    2      1.26e9 Action|Adventur…
    ##  5 Cinema Paradiso (Nuov…      1    1172    4      1.26e9 Drama           
    ##  6 Deer Hunter, The (197…      1    1263    2      1.26e9 Drama|War       
    ##  7 Ben-Hur (1959)              1    1287    2      1.26e9 Action|Adventur…
    ##  8 Gandhi (1982)               1    1293    2      1.26e9 Drama           
    ##  9 Dracula (Bram Stoker'…      1    1339    3.5    1.26e9 Fantasy|Horror|…
    ## 10 Cape Fear (1991)            1    1343    2      1.26e9 Thriller        
    ## # ... with 99,994 more rows
…
